{
  "description":"A Likert scale answer, with optional specifiers for some or all of the points.",
  "allOf": [
    {"$ref": "/response-areas/definitions/commonResponseAreaProperties.json"},
    {
      "properties": {
        "type": {
          "enum": [
            "likertResponseArea"
          ]
        },
        "autoSubmit": {
          "type": "boolean",
          "description": "Go straight to next page when a choice is selected",
          "default": false
        },
        "useEmoticons": {
          "type": "boolean",
          "description": "If true, use emoticons instead of radio buttons. Requires levels == 5",
          "default": false
        },
        "levels": {
          "type": "number",
          "multipleOf": 1,
          "description": "How many levels? E.g., if levels==3, then there are three choices: 0, 1, and 2."
        },
        "centerLabelAbove": {
          "type": "string",
          "description": "Label that is above the Likert scale and centered to indicate that it applies to all 'above' Likert labels."
        },
        "centerLabelBelow": {
          "type": "string",
          "description": "Label that is below the Likert scale and centered to indicate that it applies to all 'below' Likert labels."
        },
        "labelFontSize": {
          "type": "number",
          "description": "Override font size of specifier labels, in px",
          "default": 20
        },
        "specifiers": {
          "type": "array",
          "items": {
            "properties": {
              "level": {
                "type": "number",
                "multipleOf": 1
              },
              "label": {
                "type": "string"
              },
              "position": {
                "type": "string",
                "enum": ["above", "below"],
                "description": "Position label above or below the slider",
                "default": "above"
              }
            },
            "required": [
              "level",
              "label"
            ]
          }
        },
        "questions":{
          "type": "array",
          "description": "allows multiple likert questions on the same page",
          "items": {
            "properties": {
              "questionMainText": {
                "type": "string",
                "description": "Primary (large) text centered on the page. Overrides page questionMainText"
              },
              "useEmoticons": {
                "type": "boolean",
                "description": "If true, use emoticons instead of radio buttons. Requires levels == 5",
                "default": false
              },
              "levels": {
                "type": "number",
                "multipleOf": 1,
                "description": "How many levels? E.g., if levels==3, then there are three choices: 0, 1, and 2."
              },
              "centerLabelAbove": {
                "type": "string",
                "description": "Label that is above the Likert scale and centered to indicate that it applies to all 'above' Likert labels."
              },
              "centerLabelBelow": {
                "type": "string",
                "description": "Label that is below the Likert scale and centered to indicate that it applies to all 'below' Likert labels."
              },
              "labelFontSize": {
                "type": "number",
                "description": "Override font size of specifier labels, in px",
                "default": 20
              },
              "specifiers": {
                "type": "array",
                "items": {
                  "properties": {
                    "level": {
                      "type": "number",
                      "multipleOf": 1
                    },
                    "label": {
                      "type": "string"
                    },
                    "position": {
                      "type": "string",
                      "enum": ["above", "below"],
                      "description": "Position label above or below the slider",
                      "default": "above"
                    }
                  },
                  "required": [
                    "level",
                    "label"
                  ]
                }
              }
            }
          }
        },
        "exportToCSV": {
          "type": "boolean",
          "description": "Whether result should be exported to CSV upon submitting exam results.",
          "default": false
        }
      }
    }
  ]
}
