{
  "description": "CHA - Bekesy-like Level Audiometry",
  "allOf": [  
    { "$ref": "/cha/definitions/audiometryPageProperties.json" },
    { 
      "properties": {
        "type":{
          "enum":["chaBekesyLike"]
        },
        "exportToCSV": {
          "type": "boolean",
          "description": "Whether result should be exported to CSV upon submitting exam results.",
          "default": false
        },
        "examProperties": { "$ref": "/cha/definitions/bekesyLikeExamProperties.json" }
      }
    }
  ]
}